operationId;ordre;nom;college;etablissement;;;;nbSiegePourvoir
8001;1;1ère Circonscription des Français de l'étranger;1001;1;;;;1
8001;2;2ème Circonscription des Français de l'étranger;1001;2;;;;1
8001;3;3ème Circonscription des Français de l'étranger;1001;3;;;;1
8001;4;4ème Circonscription des Français de l'étranger;1001;4;;;;1
8001;5;5ème Circonscription des Français de l'étranger;1001;5;;;;1
8001;6;6ème Circonscription des Français de l'étranger;1001;6;;;;1
8001;7;7ème Circonscription des Français de l'étranger;1001;7;;;;1
8001;8;8ème Circonscription des Français de l'étranger;1001;8;;;;1
8001;9;9ème Circonscription des Français de l'étranger;1001;9;;;;1
8001;10;10ème Circonscription des Français de l'étranger;1001;10;;;;1
8001;11;11ème Circonscription des Français de l'étranger;1001;11;;;;1
